"Datacenter","DSC","Name","CapacityGB","FreespaceGB","UsedspaceGB","ProvisionedSpaceGB","UnCommittedGB","VM","VSPSerialHex","VSPName","VSPSerialDecimal","LUN"
"MDC","","vmdata8G08","8191.75","872.33","7319.42","7512.28","192.86","13","6d62f000000d62f","MDC_VSP_03","54831","01:17","17179869184","7595040768"
"MDC","","vmdataPS-001","2047.75","716.63","1331.12","4735.53","3404.41","14","6d62f000000d62f","MDC_VSP_03","54831","00:ff","4294967296","4293488640"
"MDC","","vmdataPS-002","2047.75","1145.31","902.44","2437.13","1534.69","14","6d62f000000d62f","MDC_VSP_03","54831","01:00","4294967296","4291596288"
"MDC","","vmdata8F03","4095.75","467.09","3628.66","4025.9","397.24","25","6d62f000000d62f","MDC_VSP_03","54831","00:27","8589934592","7946330112"
"MDC","","vmdata8F02","4095.75","418.22","3677.53","3701.58","24.05","9","6d62f000000d62f","MDC_VSP_03","54831","01:1f","8589934592","7707033600"
"MDC","","vmdata813","10239.75","1190.50","9049.25","9057.43","8.18","3","6d62f000000d62f","MDC_VSP_03","54831","00:10","21474837120","17814257664"
"MDC","","vmdata8D07","4095.75","454.42","3641.33","3957.47","316.14","20","6d62f000000d62f","MDC_VSP_03","54831","01:2a","8589934592","7709270016"
"MDC","","vmdata8C19","4095.75","823.58","3272.17","3277.23","5.05","17","6d62f000000d62f","MDC_VSP_03","54831","01:2c","8589934592","8184508416"
"MDC","","vmdata812","10239.75","1867.05","8372.70","8538.11","165.41","19","6d62f000000d62f","MDC_VSP_03","54831","00:0f","21474837120","17195028480"
"MDC","","vmdata8G05","8191.75","1368.07","6823.68","6823.68","0","3","6d62f000000d62f","MDC_VSP_03","54831","01:14","17179869184","12929925120"
"MDC","","vmdata203","4095.75","1699.45","2396.30","2994.85","598.55","19","6d62f000000d62f","MDC_VSP_03","54831","01:2f","8589934592","5380644864"
"MDC","","vmdata202","4095.75","1249.42","2846.33","3181.03","334.71","20","6d62f000000d62f","MDC_VSP_03","54831","01:2e","8589934592","5913772032"
"MDC","","vmdata815","10239.75","1032.14","9207.61","9239.29","31.68","12","6d62f000000d62f","MDC_VSP_03","54831","00:12","21474837120","16274055168"
"MDC","","vmdata201","4095.75","1746.13","2349.62","3042.84","693.22","44","6d62f000000d62f","MDC_VSP_03","54831","01:28","8589934592","6413611008"
"MDC","","vmdata8C26","4095.75","549.72","3546.03","3937.79","391.76","20","6d62f000000d62f","MDC_VSP_03","54831","01:25","8589934592","8444620800"
"MDC","","vmdata8B23","4095.75","460.44","3635.31","3687.96","52.65","11","6d62f000000d62f","MDC_VSP_03","54831","01:2b","8589934592","8087482368"
"MDC","","vmdata8G07","8191.75","908.03","7283.72","7298.91","15.18","2","6d62f000000d62f","MDC_VSP_03","54831","01:15","17179869184","1902501888"
"MDC","","vmdata8B25","4095.75","479.83","3615.92","3715.31","99.39","31","6d62f000000d62f","MDC_VSP_03","54831","01:26","8589934592","7643897856"
"MDC","","vmdata8G02","8191.75","940.44","7251.31","7255.65","4.34","18","6d62f000000d62f","MDC_VSP_03","54831","00:21","17179869184","15654481920"
"MDC","","vmdata814","10239.75","2514.79","7724.96","8899.17","1174.21","16","6d62f000000d62f","MDC_VSP_03","54831","00:11","21474837120","17365254144"
"MDC","","vmdata801","8191.75","1713.90","6477.85","6784.01","306.16","20","6d62f000000d62f","MDC_VSP_03","54831","00:b8","17179869184","16214876160"
"MDC","","vmdata816","10239.75","2059.69","8180.06","8180.06","0","5","6d62f000000d62f","MDC_VSP_03","54831","01:03","21474836480","10823737344"
"MDC","","vmdataPS-003","2047.75","1205.83","841.92","2923.46","2081.53","28","6d62f000000d62f","MDC_VSP_03","54831","01:30","4294967296","4168593408"
"MDC","","vmdata8G09","8191.75","895.54","7296.21","7347.31","51.1","5","6d62f000000d62f","MDC_VSP_03","54831","01:16","17179869184","2961014784"
"MDC","","vmdata302","2047.75","2028.56","19.19","25.2","6.01","2","6d62f000000d62f","MDC_VSP_03","54831","00:2f","4294967296","4043440128"
"MDC","","vmdata8F01","4095.75","563.67","3532.08","3562.8","30.71","36","6d62f000000d62f","MDC_VSP_03","54831","01:4b","8589934592","8223559680"
"MDC","","vmdata-SQL_POC","4915","14.02","4900.98","4900.98","0","1","6d62f000000d62f","MDC_VSP_03","54831","00:00","10307923200","10275815424"
"MDC","","vmdata8G06","8191.75","1441.83","6749.92","6836.08","86.15","21","6d62f000000d62f","MDC_VSP_03","54831","01:18","17179869184","12992716800"
"MDC","","vmdata817","10239.75","1719.64","8520.11","8520.11","0","2","6d62f000000d62f","MDC_VSP_03","54831","01:04","21474836480","3798380544"
"Regional","ZertoSHO","ZertoSHO-003","2047.75","721.96","1325.79","1433.4","107.6","1","6d1c3000000d1c3","SHO_VSP_01","53699","00:00","4294967296","4272328704"
"Regional","ZertoSHO","ZertoSHO-001","4095.75","1302.60","2793.15","3249.63","456.48","4","6d1c3000000d1c3","SHO_VSP_01","53699","00:05","8589934592","7384731648"
"Regional","ZertoSHO","ZertoSHO-004","4095.75","2515.12","1580.62","1684.39","103.77","2","6d1c3000000d1c3","SHO_VSP_01","53699","00:01","8589934592","6276759552"
"Regional","ZertoSHO","ZertoSHO-002","4095.75","2758.84","1336.91","1518.08","181.17","3","6d1c3000000d1c3","SHO_VSP_01","53699","00:06","8589934592","4442382336"
"Regional","SHO","vmdataSHO-003","2047.75","567.02","1480.73","1549.9","69.17","6","6d1c3000000d1c3","SHO_VSP_01","53699","00:02","4294967296","3423952896"
"MDC","ClusterDR-VSP1","VSP1-DR002","4095.75","1674.53","2421.22","2421.22","0","6","6d020000000d020","MDC_VSP_01","53280","62:31","8589934592","3136315392"
"MDC","ClusterDR-VSP1","VSP1-DR001","4095.75","1397.66","2698.09","2698.22","0.13","6","6d020000000d020","MDC_VSP_01","53280","62:30","8589934592","6616608768"
"MDC","ClusterDMZ-DR","vmdata-DMZ-DR002","4095.75","3145.13","950.62","979.1","28.49","8","6d020000000d020","MDC_VSP_01","53280","00:00","8589934592","3688796160"
"MDC","ClusterNonDR","vmdata9AN","8191.75","1264.68","6927.07","6946.57","19.5","10","6d62f000000d62f","MDC_VSP_03","54831","00:17","17179869184","13659856896"
"MDC","ClusterNonDR","vmdata9AM","8191.75","1296.05","6895.70","6895.7","0","7","6d62f000000d62f","MDC_VSP_03","54831","00:16","17179869184","15180447744"
"MDC","ClusterNonDR","vmdata9AL","8191.75","1250.97","6940.78","6940.78","0","7","6d62f000000d62f","MDC_VSP_03","54831","00:15","17179869184","14729379840"
"MDC","ClusterNonDR","vmdata904","2047.75","324.32","1723.43","1818.53","95.09","12","6d62f000000d62f","MDC_VSP_03","54831","00:09","4294967296","3322195968"
"MDC","ClusterNonDR","vmdata944","8191.75","1176.96","7014.79","7014.79","0","6","6d62f000000d62f","MDC_VSP_03","54831","00:0b","17179869184","15300096000"
"MDC","ClusterNonDR","vmdata902","10239.75","1248.10","8991.65","8991.65","0","6","6d62f000000d62f","MDC_VSP_03","54831","00:1c","21474836480","7229730816"
"MDC","ClusterNonDR","vmdata901","2047.75","307.62","1740.13","1845.58","105.45","16","6d62f000000d62f","MDC_VSP_03","54831","00:06","4294967296","3744620544"
"MDC","ClusterNonDR","vmdata915","2047.75","394.56","1653.19","1834.37","181.18","13","6d62f000000d62f","MDC_VSP_03","54831","00:5e","4294967296","3299487744"
"MDC","ClusterNonDR","vmdata9AJ","8191.75","1019.21","7172.54","7172.54","0","1","6d62f000000d62f","MDC_VSP_03","54831","00:13","17179869184","12825071616"
"MDC","ClusterNonDR","vmdata925","2047.75","371.28","1676.47","1805.57","129.11","10","6d62f000000d62f","MDC_VSP_03","54831","00:ef","4294967296","3524075520"
"MDC","ClusterNonDR","vmdata905","2047.75","332.73","1715.02","1715.02","0","7","6d62f000000d62f","MDC_VSP_03","54831","00:0a","4294967296","3909943296"
"MDC","ClusterNonDR","vmdata913","2047.75","370.05","1677.70","1685.86","8.16","10","6d62f000000d62f","MDC_VSP_03","54831","00:2c","4294967296","4067352576"
"MDC","ClusterNonDR","vmdata929","2047.75","421.71","1626.04","1626.04","0","7","6d62f000000d62f","MDC_VSP_03","54831","00:f9","4294967296","3199795200"
"MDC","ClusterNonDR","vmdata908","2047.75","413.96","1633.79","1633.79","0","8","6d62f000000d62f","MDC_VSP_03","54831","00:0d","4294967296","3247276032"
"MDC","ClusterNonDR","vmdata930","2047.75","413.13","1634.62","1634.62","0","10","6d62f000000d62f","MDC_VSP_03","54831","01:13","4294967296","3668496384"
"MDC","ClusterNonDR","vmdata932","4095.75","822.63","3273.12","3317.98","44.86","14","6d62f000000d62f","MDC_VSP_03","54831","01:3e","8589934592","6362087424"
"MDC","ClusterNonDR","vmdata903","2047.75","327.40","1720.35","1841.15","120.8","15","6d62f000000d62f","MDC_VSP_03","54831","00:08","4294967296","3994583040"
"MDC","ClusterNonDR","vmdata926","2047.75","363.04","1684.71","1684.71","0","9","6d62f000000d62f","MDC_VSP_03","54831","00:f0","4294967296","4234051584"
"MDC","ClusterNonDR","vmdata916","2047.75","316.29","1731.46","1731.46","0","10","6d62f000000d62f","MDC_VSP_03","54831","00:9b","4294967296","3958972416"
"MDC","ClusterNonDR","vmdata920","4095.75","802.41","3293.34","3388.68","95.34","8","6d62f000000d62f","MDC_VSP_03","54831","00:ab","8589934592","7344820224"
"MDC","ClusterNonDR","vmdata9AK","8191.75","1338.36","6853.39","6853.39","0","4","6d62f000000d62f","MDC_VSP_03","54831","00:14","17179869184","15002910720"
"MDC","ClusterNonDR","vmdata906","10239.75","991.55","9248.20","9285.64","37.44","4","6d62f000000d62f","MDC_VSP_03","54831","00:1d","21474836480","4119048192"
"MDC","ClusterDMZ","vmdata-DMZ003","4095.75","1120.79","2974.96","2975.61","0.64","4","6d020000000d020","MDC_VSP_01","53280","00:01","8589934592","5307531264"
"MDC","ClusterDR","vmdata-DR101","2047.75","409.86","1637.89","2466.08","828.2","9","6d62f000000d62f","MDC_VSP_03","54831","00:6f","4294968960","3903148032"
"MDC","ClusterDR","vmdata-DR106","2047.75","435.48","1612.27","1612.27","0","7","6d62f000000d62f","MDC_VSP_03","54831","00:74","4294968960","3985035264"
"MDC","ClusterDR","vmdata-DR102","2047.75","680.11","1367.64","1914.55","546.9","4","6d62f000000d62f","MDC_VSP_03","54831","00:70","4294968960","4025634816"
"MDC","ClusterDR","vmdata-DR103","2047.75","475.99","1571.76","1714.59","142.83","9","6d62f000000d62f","MDC_VSP_03","54831","00:71","4294968960","3869945856"
"MDC","ClusterDR","vmdata-DR114","2047.75","534.58","1513.17","1624.14","110.97","6","6d62f000000d62f","MDC_VSP_03","54831","00:7c","4294968960","3914330112"
"MDC","ClusterDR","vmdata-DR125","2047.75","636.36","1411.39","1448.08","36.69","7","6d62f000000d62f","MDC_VSP_03","54831","00:af","4294967296","4049891328"
"MDC","ClusterDR","vmdata-DR121","4095.75","1143.49","2952.26","3095.94","143.69","4","6d62f000000d62f","MDC_VSP_03","54831","00:9e","8589934592","8119050240"
"MDC","ClusterDR","vmdata-DR136","4095.75","1163.84","2931.91","2931.91","0","6","6d62f000000d62f","MDC_VSP_03","54831","01:65","8589934592","7390322688"
"MDC","ClusterDR","vmdata-DR117","2047.75","604.78","1442.97","1442.97","0","1","6d62f000000d62f","MDC_VSP_03","54831","00:7f","4294968960","4018925568"
"MDC","ClusterDR","vmdata-DR142","4095.75","2901.87","1193.88","1193.88","0","5","6d62f000000d62f","MDC_VSP_03","54831","01:41","8589934592","8268890112"
"MDC","ClusterDR","vmdata-DR144","4095.75","887.52","3208.23","3208.23","0","4","6d62f000000d62f","MDC_VSP_03","54831","01:43","8589934592","8336154624"
"MDC","ClusterDR","vmdata-DR148","4095.75","510.78","3584.97","3584.97","0","1","6d62f000000d62f","MDC_VSP_03","54831","00:03","8589934592","8339595264"
"MDC","ClusterDR","vmdata-DR132","4095.75","895.93","3199.82","3448.59","248.77","13","6d62f000000d62f","MDC_VSP_03","54831","00:f2","8589934592","8142962688"
"MDC","ClusterDR","vmdata-DR151","4095.75","885.00","3210.75","3210.75","0","11","6d62f000000d62f","MDC_VSP_03","54831","00:05","8589934592","7539990528"
"MDC","ClusterDR","vmdata-DR145","4095.75","828.74","3267.01","3654.81","387.79","10","6d62f000000d62f","MDC_VSP_03","54831","01:56","8589934592","7833649152"
"MDC","ClusterDR","vmdata-DR201","4095.75","3778.34","317.41","317.41","0","2","6d62f000000d62f","MDC_VSP_03","54831","00:ed","8589934592","2346602496"
"MDC","ClusterDR","vmdata-DR107","2047.75","514.92","1532.83","1627.91","95.08","7","6d62f000000d62f","MDC_VSP_03","54831","00:75","4294968960","4047482880"
"MDC","ClusterDR","vmdata-DR146","4095.75","940.70","3155.05","3497.6","342.55","9","6d62f000000d62f","MDC_VSP_03","54831","00:01","8589934592","4873236480"
"MDC","ClusterDR","vmdata-DR139","4095.75","977.33","3118.42","3118.42","0","13","6d62f000000d62f","MDC_VSP_03","54831","00:fc","8589934592","8211603456"
"MDC","ClusterDR","vmdata-DR149","4095.75","156.58","3939.17","3939.17","0","3","6d62f000000d62f","MDC_VSP_03","54831","00:04","8589934592","6026194944"
"MDC","ClusterDR","vmdata-DR105","4095.75","856.72","3239.03","3484.7","245.67","7","6d62f000000d62f","MDC_VSP_03","54831","00:81","8589934592","7429029888"
"MDC","ClusterDR","vmdata-DR111","2047.75","425.53","1622.22","1976.62","354.38","9","6d62f000000d62f","MDC_VSP_03","54831","00:79","4294968960","3901685760"
"MDC","ClusterDR","vmdata-DR141","4095.75","931.58","3164.17","3408.88","244.72","5","6d62f000000d62f","MDC_VSP_03","54831","01:67","8589934592","7243665408"
"MDC","ClusterDR","vmdata-DR143","4095.75","920.07","3175.68","3175.68","0","11","6d62f000000d62f","MDC_VSP_03","54831","01:42","8589934592","8026841088"
"MDC","ClusterDR","vmdata-DR150","4095.75","893.58","3202.17","3202.17","0","6","6d62f000000d62f","MDC_VSP_03","54831","00:6e","8589934592","8492445696"
"MDC","ClusterDR","vmdata-DR147","4095.75","1087.71","3008.04","3008.04","0","6","6d62f000000d62f","MDC_VSP_03","54831","00:02","8589934592","8364969984"
"MDC","ClusterDR","vmdata-DR122","4095.75","1036.41","3059.34","3067.52","8.18","9","6d62f000000d62f","MDC_VSP_03","54831","00:9f","8589934592","8090836992"
"MDC","ClusterDR","vmdata-DR133","2047.75","665.83","1381.92","1381.92","0","5","6d62f000000d62f","MDC_VSP_03","54831","01:01","4294967296","3878461440"
"MDC","ClusterDR","vmdata-DR131","2047.75","497.51","1550.24","1550.24","0","5","6d62f000000d62f","MDC_VSP_03","54831","00:f7","4294967296","2835001344"
"MDC","ClusterDR","vmdata-DR116","4095.75","904.82","3190.93","3435.6","244.67","10","6d62f000000d62f","MDC_VSP_03","54831","00:7e","8589934592","8131780608"
"MDC","ClusterDR","vmdata-DR129","4095.75","1078.42","3017.33","3017.33","0","10","6d62f000000d62f","MDC_VSP_03","54831","00:ce","8589934592","8562548736"
"MDC","ClusterDR","vmdata-DR118","4095.75","667.66","3428.09","3428.09","0","7","6d62f000000d62f","MDC_VSP_03","54831","00:80","8589934592","7185604608"
"MDC","ClusterDR","vmdata-DR140","4095.75","1699.62","2396.13","2840.5","444.37","8","6d62f000000d62f","MDC_VSP_03","54831","01:66","8589934592","8459329536"
"MDC","ClusterDR","vmdata-DR134","2047.75","439.32","1608.43","1849.81","241.37","10","6d62f000000d62f","MDC_VSP_03","54831","01:02","4294967296","3749007360"
"MDC","ClusterDR","vmdata-DR137","4095.75","450.59","3645.16","3645.16","0","2","6d62f000000d62f","MDC_VSP_03","54831","01:64","8589934592","7413460992"
"MDC","ClusterDR","vmdata-DR130","2047.75","489.29","1558.46","1558.46","0","6","6d62f000000d62f","MDC_VSP_03","54831","00:f6","4294967296","3963789312"
