INPUT_RECORD_TYPE,DATETIME,GMT_ADJUST,RECORD_TIME,COLLECTION_TIME,POOL_ID,INTERVAL,ATTRIBUTE,STATUS,USAGE_RATE,THRESHOLD,WARNING_THRESHOLD,TOTAL_MANAGED_CAPACITY,TOTAL_ACTUAL_CAPACITY,USED_CAPACITY,FREE_CAPACITY,VIRTUAL_VOLUME_COUNT,POOL_VOLUME_COUNT,EMULATION_TYPE,RESERVED_CAPACITY,PHYSICAL_CAPACITY_TOTAL,PHYSICAL_CAPACITY_USED,PHYSICAL_CAPACITY_FREE,PHYSICAL_CAPACITY_USAGE_RATE,POOL_CAPACITY_EXPANSION_RATE,FMC_POOL_CAPACITY_SAVING,FMC_POOL_CAPACITY_SAVING_RATE,DATA_SAVING,DKC_SAVING_CAPACITY
string(8),time_t,long,time_t,time_t,string(8),ulong,string(32),string(64),float,float,float,double,double,double,double,ulong,ulong,string(64),double,double,double,double,float,float,double,float,unsigned char,double
"PLC",2017-11-16 06:00:24,36000,2017-11-16 06:00:24,2017-11-16 06:00:24,"10",21599,"Dynamic Provisioning (Tiering)","WARNING",8.500000E+01,9.000000E+01,8.500000E+01,1.76797549804688E+05,1.43111800781250E+05,1.22427580078125E+05,2.06842207031250E+04,158,70,"OPEN-V-CVS",0.00000000000000E+00,1.43111800781250E+05,1.22427580078125E+05,2.06842207031250E+04,8.500000E+01,0.000000E+00,0.00000000000000E+00,0.000000E+00,0,0.00000000000000E+00
"PLC",2017-11-16 06:00:24,36000,2017-11-16 06:00:24,2017-11-16 06:00:24,"19",21599,"Dynamic Provisioning (Tiering)","WARNING",8.500000E+01,9.000000E+01,8.500000E+01,1.77485011718750E+05,1.43111800781250E+05,1.22222460937500E+05,2.08893398437500E+04,185,70,"OPEN-V-CVS",0.00000000000000E+00,1.43111800781250E+05,1.22222460937500E+05,2.08893398437500E+04,8.500000E+01,0.000000E+00,0.00000000000000E+00,0.000000E+00,0,0.00000000000000E+00
"PLC",2017-11-16 06:00:24,36000,2017-11-16 06:00:24,2017-11-16 06:00:24,"22",21599,"Dynamic Provisioning (Tiering)","NORMAL",8.300000E+01,9.500000E+01,8.500000E+01,2.64800000000000E+04,1.64081367187500E+04,1.37542617187500E+04,2.65387500000000E+03,17,6,"OPEN-V-CVS",0.00000000000000E+00,1.64081367187500E+04,1.37542617187500E+04,2.65387500000000E+03,8.300000E+01,0.000000E+00,0.00000000000000E+00,0.000000E+00,0,0.00000000000000E+00
"PLC",2017-11-16 06:00:24,36000,2017-11-16 06:00:24,2017-11-16 06:00:24,"23",21599,"Dynamic Provisioning (Tiering)","NORMAL",9.800000E+01,1.000000E+02,1.000000E+02,8.19200000000000E+05,9.36119296875000E+04,9.17930097656250E+04,1.81891992187500E+03,100,44,"OPEN-V",0.00000000000000E+00,9.36119296875000E+04,9.17930097656250E+04,1.81891992187500E+03,9.800000E+01,0.000000E+00,0.00000000000000E+00,0.000000E+00,0,0.00000000000000E+00
"PLC",2017-11-16 06:00:24,36000,2017-11-16 06:00:24,2017-11-16 06:00:24,"24",21599,"Dynamic Provisioning (Tiering)","WARNING",9.900000E+01,8.000000E+01,7.000000E+01,8.19200000000000E+05,1.10024167968750E+05,1.09276289062500E+05,7.47878906250000E+02,100,50,"OPEN-V",0.00000000000000E+00,1.10024167968750E+05,1.09276289062500E+05,7.47878906250000E+02,9.900000E+01,0.000000E+00,0.00000000000000E+00,0.000000E+00,0,0.00000000000000E+00
"PLC",2017-11-16 06:00:24,36000,2017-11-16 06:00:24,2017-11-16 06:00:24,"25",21599,"Dynamic Provisioning (Tiering)","WARNING",7.400000E+01,8.000000E+01,7.000000E+01,8.19200000000000E+05,7.71996914062500E+04,5.71815234375000E+04,2.00181679687500E+04,100,38,"OPEN-V",0.00000000000000E+00,7.71996914062500E+04,5.71815234375000E+04,2.00181679687500E+04,7.400000E+01,0.000000E+00,0.00000000000000E+00,0.000000E+00,0,0.00000000000000E+00
"PLC",2017-11-16 06:00:24,36000,2017-11-16 06:00:24,2017-11-16 06:00:24,"26",21599,"Dynamic Provisioning (Tiering)","WARNING",9.200000E+01,8.000000E+01,7.000000E+01,8.19200000000000E+05,9.36119296875000E+04,8.68833984375000E+04,6.72853125000000E+03,100,44,"OPEN-V",0.00000000000000E+00,9.36119296875000E+04,8.68833984375000E+04,6.72853125000000E+03,9.200000E+01,0.000000E+00,0.00000000000000E+00,0.000000E+00,0,0.00000000000000E+00
"PLC",2017-11-16 06:00:24,36000,2017-11-16 06:00:24,2017-11-16 06:00:24,"30",21599,"Dynamic Provisioning","NORMAL",2.000000E+01,8.000000E+01,7.000000E+01,1.77660000000000E+04,6.56448515625000E+04,1.31820117187500E+04,5.24628398437500E+04,48,24,"OPEN-V-CVS",0.00000000000000E+00,6.56448515625000E+04,1.31820117187500E+04,5.24628398437500E+04,2.000000E+01,0.000000E+00,0.00000000000000E+00,0.000000E+00,0,0.00000000000000E+00
"PLC",2017-11-16 06:00:24,36000,2017-11-16 06:00:24,2017-11-16 06:00:24,"40",21599,"Dynamic Provisioning (Tiering)","WARNING",9.100000E+01,9.500000E+01,9.000000E+01,3.60706247070313E+05,3.43447371093750E+05,3.14599359375000E+05,2.88480117187500E+04,156,142,"OPEN-V-CVS",0.00000000000000E+00,3.43447371093750E+05,3.14599359375000E+05,2.88480117187500E+04,9.100000E+01,0.000000E+00,0.00000000000000E+00,0.000000E+00,0,0.00000000000000E+00
"PLC",2017-11-16 06:00:24,36000,2017-11-16 06:00:24,2017-11-16 06:00:24,"100",21599,"Dynamic Provisioning","NORMAL",4.500000E+01,8.000000E+01,7.000000E+01,1.50000000000000E+03,3.27263671875000E+03,1.50076171875000E+03,1.77187500000000E+03,20,2,"OPEN-V",0.00000000000000E+00,3.27263671875000E+03,1.50076171875000E+03,1.77187500000000E+03,4.500000E+01,0.000000E+00,0.00000000000000E+00,0.000000E+00,0,0.00000000000000E+00
"PLC",2017-11-16 06:00:24,36000,2017-11-16 06:00:24,2017-11-16 06:00:24,"101",21599,"Dynamic Provisioning","NORMAL",4.500000E+01,8.000000E+01,7.000000E+01,1.50000000000000E+03,3.27263671875000E+03,1.50076171875000E+03,1.77187500000000E+03,20,2,"OPEN-V",0.00000000000000E+00,3.27263671875000E+03,1.50076171875000E+03,1.77187500000000E+03,4.500000E+01,0.000000E+00,0.00000000000000E+00,0.000000E+00,0,0.00000000000000E+00
"PLC",2017-11-16 06:00:24,36000,2017-11-16 06:00:24,2017-11-16 06:00:24,"107",21599,"Dynamic Provisioning","NORMAL",4.500000E+01,8.000000E+01,7.000000E+01,1.50000000000000E+03,3.27263671875000E+03,1.50076171875000E+03,1.77187500000000E+03,20,2,"OPEN-V",0.00000000000000E+00,3.27263671875000E+03,1.50076171875000E+03,1.77187500000000E+03,4.500000E+01,0.000000E+00,0.00000000000000E+00,0.000000E+00,0,0.00000000000000E+00
"PLC",2017-11-16 06:00:24,36000,2017-11-16 06:00:24,2017-11-16 06:00:24,"108",21599,"Dynamic Provisioning","NORMAL",4.500000E+01,8.000000E+01,7.000000E+01,1.50000000000000E+03,3.27263671875000E+03,1.50076171875000E+03,1.77187500000000E+03,20,2,"OPEN-V",0.00000000000000E+00,3.27263671875000E+03,1.50076171875000E+03,1.77187500000000E+03,4.500000E+01,0.000000E+00,0.00000000000000E+00,0.000000E+00,0,0.00000000000000E+00
"PLC",2017-11-16 06:00:24,36000,2017-11-16 06:00:24,2017-11-16 06:00:24,"109",21599,"Dynamic Provisioning","NORMAL",4.500000E+01,8.000000E+01,7.000000E+01,1.50000000000000E+03,3.27263671875000E+03,1.50076171875000E+03,1.77187500000000E+03,20,2,"OPEN-V",0.00000000000000E+00,3.27263671875000E+03,1.50076171875000E+03,1.77187500000000E+03,4.500000E+01,0.000000E+00,0.00000000000000E+00,0.000000E+00,0,0.00000000000000E+00

