INPUT_RECORD_TYPE,DATETIME,GMT_ADJUST,RECORD_TIME,COLLECTION_TIME,POOL_ID,INTERVAL,ATTRIBUTE,STATUS,USAGE_RATE,THRESHOLD,WARNING_THRESHOLD,TOTAL_MANAGED_CAPACITY,TOTAL_ACTUAL_CAPACITY,USED_CAPACITY,FREE_CAPACITY,VIRTUAL_VOLUME_COUNT,POOL_VOLUME_COUNT,EMULATION_TYPE,RESERVED_CAPACITY,PHYSICAL_CAPACITY_TOTAL,PHYSICAL_CAPACITY_USED,PHYSICAL_CAPACITY_FREE,PHYSICAL_CAPACITY_USAGE_RATE,POOL_CAPACITY_EXPANSION_RATE,FMC_POOL_CAPACITY_SAVING,FMC_POOL_CAPACITY_SAVING_RATE,DATA_SAVING,DKC_SAVING_CAPACITY
string(8),time_t,long,time_t,time_t,string(8),ulong,string(32),string(64),float,float,float,double,double,double,double,ulong,ulong,string(64),double,double,double,double,float,float,double,float,unsigned char,double
"PLC",2017-11-16 06:00:06,36000,2017-11-16 06:00:06,2017-11-16 06:00:06,"5",21601,"Dynamic Provisioning","WARNING",9.400000E+01,8.000000E+01,7.000000E+01,2.02073320312500E+04,1.96564921875000E+04,1.85051015625000E+04,1.15139062500000E+03,88,8,"OPEN-V-CVS",0.00000000000000E+00,1.96564921875000E+04,1.85051015625000E+04,1.15139062500000E+03,9.414244E+01,1.000000E+02,4.99744432067871E+03,2.701459E+01,2,0.00000000000000E+00
"PLC",2017-11-16 06:00:06,36000,2017-11-16 06:00:06,2017-11-16 06:00:06,"50",21601,"Dynamic Provisioning","WARNING",9.700000E+01,8.000000E+01,7.000000E+01,3.07220976562500E+05,3.06357679687500E+05,3.00006861328125E+05,6.35081835937500E+03,60,112,"OPEN-V-CVS",0.00000000000000E+00,3.06357679687500E+05,3.00006861328125E+05,6.35081835937500E+03,9.700000E+01,0.000000E+00,0.00000000000000E+00,0.000000E+00,2,0.00000000000000E+00
"PLC",2017-11-16 06:00:06,36000,2017-11-16 06:00:06,2017-11-16 06:00:06,"51",21601,"Dynamic Provisioning","WARNING",8.100000E+01,8.000000E+01,7.000000E+01,2.56017480468750E+05,3.06357679687500E+05,2.50005738281250E+05,5.63519414062500E+04,50,112,"OPEN-V-CVS",0.00000000000000E+00,3.06357679687500E+05,2.50005738281250E+05,5.63519414062500E+04,8.100000E+01,0.000000E+00,0.00000000000000E+00,0.000000E+00,2,0.00000000000000E+00
"PLC",2017-11-16 06:00:06,36000,2017-11-16 06:00:06,2017-11-16 06:00:06,"52",21601,"Dynamic Provisioning","WARNING",9.500000E+01,8.000000E+01,7.000000E+01,2.56017480468750E+05,2.62591710937500E+05,2.49990275390625E+05,1.26014355468750E+04,50,96,"OPEN-V-CVS",0.00000000000000E+00,2.62591710937500E+05,2.49990275390625E+05,1.26014355468750E+04,9.500000E+01,0.000000E+00,0.00000000000000E+00,0.000000E+00,2,0.00000000000000E+00
"PLC",2017-11-16 06:00:06,36000,2017-11-16 06:00:06,2017-11-16 06:00:06,"53",21601,"Dynamic Provisioning","NORMAL",1.300000E+01,9.500000E+01,8.500000E+01,1.53610488281250E+05,2.62591710937500E+05,3.53937773437500E+04,2.27197933593750E+05,30,96,"OPEN-V-CVS",0.00000000000000E+00,2.62591710937500E+05,3.53937773437500E+04,2.27197933593750E+05,1.300000E+01,0.000000E+00,0.00000000000000E+00,0.000000E+00,2,0.00000000000000E+00








