INPUT_RECORD_TYPE,DATETIME,GMT_ADJUST,RECORD_TIME,COLLECTION_TIME,POOL_ID,INTERVAL,ATTRIBUTE,STATUS,USAGE_RATE,THRESHOLD,WARNING_THRESHOLD,TOTAL_MANAGED_CAPACITY,TOTAL_ACTUAL_CAPACITY,USED_CAPACITY,FREE_CAPACITY,VIRTUAL_VOLUME_COUNT,POOL_VOLUME_COUNT,EMULATION_TYPE,RESERVED_CAPACITY,PHYSICAL_CAPACITY_TOTAL,PHYSICAL_CAPACITY_USED,PHYSICAL_CAPACITY_FREE,PHYSICAL_CAPACITY_USAGE_RATE,POOL_CAPACITY_EXPANSION_RATE,FMC_POOL_CAPACITY_SAVING,FMC_POOL_CAPACITY_SAVING_RATE,DATA_SAVING,DKC_SAVING_CAPACITY
string(8),time_t,long,time_t,time_t,string(8),ulong,string(32),string(64),float,float,float,double,double,double,double,ulong,ulong,string(64),double,double,double,double,float,float,double,float,unsigned char,double
"PLC",2017-11-16 06:00:14,36000,2017-11-16 06:00:14,2017-11-16 06:00:14,"10",21601,"Dynamic Provisioning (Tiering)","NORMAL",8.500000E+01,9.500000E+01,9.000000E+01,1.27795351562500E+04,1.36528398437500E+04,1.16317363281250E+04,2.02110351562500E+03,1251,34,"3390-V-CVS",0.00000000000000E+00,1.36528398437500E+04,1.16317363281250E+04,2.02110351562500E+03,8.500000E+01,0.000000E+00,0.00000000000000E+00,0.000000E+00,0,0.00000000000000E+00
"PLC",2017-11-16 06:00:14,36000,2017-11-16 06:00:14,2017-11-16 06:00:14,"19",21601,"Dynamic Provisioning (Tiering)","NORMAL",8.400000E+01,9.500000E+01,9.000000E+01,1.27795351562500E+04,1.36528398437500E+04,1.15831914062500E+04,2.06964843750000E+03,1251,34,"3390-V-CVS",0.00000000000000E+00,1.36528398437500E+04,1.15831914062500E+04,2.06964843750000E+03,8.400000E+01,0.000000E+00,0.00000000000000E+00,0.000000E+00,0,0.00000000000000E+00

